%YAML 1.1
%TAG !u! tag:unity3d.com,2011:
--- !u!21 &2100000
Material:
  serializedVersion: 6
  m_ObjectHideFlags: 0
  m_CorrespondingSourceObject: {fileID: 0}
  m_PrefabInternal: {fileID: 0}
  m_Name: Shadero_Slim
  m_Shader: {fileID: 4800000, guid: db879b679c7f6ae478b035b1004930b0, type: 3}
  m_ShaderKeywords: ETC1_EXTERNAL_ALPHA
  m_LightmapFlags: 4
  m_EnableInstancingVariants: 0
  m_DoubleSidedGI: 0
  m_CustomRenderQueue: -1
  stringTagMap: {}
  disabledShaderPasses: []
  m_SavedProperties:
    serializedVersion: 3
    m_TexEnvs:
    - SpriteSheetUVAnimPack_1:
        m_Texture: {fileID: 2800000, guid: 7a7fc0cd16766594a8abb6eb38c37afa, type: 3}
        m_Scale: {x: 1, y: 1}
        m_Offset: {x: 0, y: 0}
    - _BumpMap:
        m_Texture: {fileID: 0}
        m_Scale: {x: 1, y: 1}
        m_Offset: {x: 0, y: 0}
    - _DetailAlbedoMap:
        m_Texture: {fileID: 0}
        m_Scale: {x: 1, y: 1}
        m_Offset: {x: 0, y: 0}
    - _DetailMask:
        m_Texture: {fileID: 0}
        m_Scale: {x: 1, y: 1}
        m_Offset: {x: 0, y: 0}
    - _DetailNormalMap:
        m_Texture: {fileID: 0}
        m_Scale: {x: 1, y: 1}
        m_Offset: {x: 0, y: 0}
    - _EmissionMap:
        m_Texture: {fileID: 0}
        m_Scale: {x: 1, y: 1}
        m_Offset: {x: 0, y: 0}
    - _MainTex:
        m_Texture: {fileID: 0}
        m_Scale: {x: 1, y: 1}
        m_Offset: {x: 0, y: 0}
    - _MetallicGlossMap:
        m_Texture: {fileID: 0}
        m_Scale: {x: 1, y: 1}
        m_Offset: {x: 0, y: 0}
    - _NewTex_1:
        m_Texture: {fileID: 2800000, guid: ab54f27838742f94b892d3eab007a9f2, type: 3}
        m_Scale: {x: 1, y: 1}
        m_Offset: {x: 0, y: 0}
    - _NewTex_2:
        m_Texture: {fileID: 2800000, guid: 6086b12f15102904d9d8852997781d00, type: 3}
        m_Scale: {x: 1, y: 1}
        m_Offset: {x: 0, y: 0}
    - _NewTex_3:
        m_Texture: {fileID: 2800000, guid: acd37807ec892894aa8f69a3357c10f4, type: 3}
        m_Scale: {x: 1, y: 1}
        m_Offset: {x: 0, y: 0}
    - _NewTex_4:
        m_Texture: {fileID: 2800000, guid: 1d35323330f9b2941b0ae1ef89084eb2, type: 3}
        m_Scale: {x: 1, y: 1}
        m_Offset: {x: 0, y: 0}
    - _NewTex_5:
        m_Texture: {fileID: 2800000, guid: fc3e7457e24904e43b3884e766ee98b1, type: 3}
        m_Scale: {x: 1, y: 1}
        m_Offset: {x: 0, y: 0}
    - _OcclusionMap:
        m_Texture: {fileID: 0}
        m_Scale: {x: 1, y: 1}
        m_Offset: {x: 0, y: 0}
    - _ParallaxMap:
        m_Texture: {fileID: 0}
        m_Scale: {x: 1, y: 1}
        m_Offset: {x: 0, y: 0}
    m_Floats:
    - _AutomaticLerp_Speed_1: 0.40513572
    - _BumpScale: 1
    - _ColorHSV_Brightness_1: 1
    - _ColorHSV_Hue_1: 220.61525
    - _ColorHSV_Saturation_1: 1
    - _ColorMask: 15
    - _Cutoff: 0.5
    - _DetailNormalMapScale: 1
    - _DstBlend: 0
    - _GlossMapScale: 1
    - _Glossiness: 0.5
    - _GlossyReflections: 1
    - _Metallic: 0
    - _Mode: 0
    - _OcclusionStrength: 1
    - _Parallax: 0.02
    - _SmoothnessTextureChannel: 0
    - _SpecularHighlights: 1
    - _SpriteFade: 1
    - _SpriteSheetUVAnimPack_Blend_1: 0.801642
    - _SpriteSheetUVAnimPack_Frame1_1: 0
    - _SpriteSheetUVAnimPack_Frame2_1: 0
    - _SpriteSheetUVAnimPack_Size_1: 4
    - _SrcBlend: 1
    - _Stencil: 0
    - _StencilComp: 8
    - _StencilOp: 0
    - _StencilReadMask: 255
    - _StencilWriteMask: 255
    - _UVSec: 0
    - _ZWrite: 1
    m_Colors:
    - _Color: {r: 1, g: 1, b: 1, a: 1}
    - _EmissionColor: {r: 0, g: 0, b: 0, a: 1}
    - _FourGradients_Color1_1: {r: 1, g: 0, b: 0, a: 0}
    - _FourGradients_Color2_1: {r: 0, g: 1, b: 0, a: 0}
    - _FourGradients_Color3_1: {r: 1, g: 0.616, b: 0, a: 0.172}
    - _FourGradients_Color4_1: {r: 1, g: 0.48529413, b: 0, a: 0.316}
